%YAML 1.1
%TAG !u! tag:unity3d.com,2011:
--- !u!1001 &6637555414880810122
PrefabInstance:
  m_ObjectHideFlags: 0
  serializedVersion: 2
  m_Modification:
    m_TransformParent: {fileID: 0}
    m_Modifications:
    - target: {fileID: 5504408897073596053, guid: 0dd8769c9445bd148b6138be0113e2ba, type: 3}
      propertyPath: m_Controller
      value: 
      objectReference: {fileID: 9100000, guid: 974e8efd583d3224a8705b7cd933db5c, type: 2}
    - target: {fileID: 5982189013922275259, guid: 0dd8769c9445bd148b6138be0113e2ba, type: 3}
      propertyPath: deadEvent.m_PersistentCalls.m_Calls.Array.size
      value: 3
      objectReference: {fileID: 0}
    - target: {fileID: 5982189013922275259, guid: 0dd8769c9445bd148b6138be0113e2ba, type: 3}
      propertyPath: preDeadEvent.m_PersistentCalls.m_Calls.Array.size
      value: 1
      objectReference: {fileID: 0}
    - target: {fileID: 5982189013922275259, guid: 0dd8769c9445bd148b6138be0113e2ba, type: 3}
      propertyPath: preDeadEvent.m_PersistentCalls.m_Calls.Array.data[0].m_Mode
      value: 5
      objectReference: {fileID: 0}
    - target: {fileID: 5982189013922275259, guid: 0dd8769c9445bd148b6138be0113e2ba, type: 3}
      propertyPath: preDeadEvent.m_PersistentCalls.m_Calls.Array.data[0].m_Target
      value: 
      objectReference: {fileID: 1188602589535711775}
    - target: {fileID: 5982189013922275259, guid: 0dd8769c9445bd148b6138be0113e2ba, type: 3}
      propertyPath: deadEvent.m_PersistentCalls.m_Calls.Array.data[1].m_MethodName
      value: DestroyThis
      objectReference: {fileID: 0}
    - target: {fileID: 5982189013922275259, guid: 0dd8769c9445bd148b6138be0113e2ba, type: 3}
      propertyPath: preDeadEvent.m_PersistentCalls.m_Calls.Array.data[0].m_CallState
      value: 2
      objectReference: {fileID: 0}
    - target: {fileID: 5982189013922275259, guid: 0dd8769c9445bd148b6138be0113e2ba, type: 3}
      propertyPath: preDeadEvent.m_PersistentCalls.m_Calls.Array.data[0].m_MethodName
      value: SetTrigger
      objectReference: {fileID: 0}
    - target: {fileID: 5982189013922275259, guid: 0dd8769c9445bd148b6138be0113e2ba, type: 3}
      propertyPath: preDeadEvent.m_PersistentCalls.m_Calls.Array.data[0].m_TargetAssemblyTypeName
      value: UnityEngine.Animator, UnityEngine
      objectReference: {fileID: 0}
    - target: {fileID: 5982189013922275259, guid: 0dd8769c9445bd148b6138be0113e2ba, type: 3}
      propertyPath: deadEvent.m_PersistentCalls.m_Calls.Array.data[0].m_Arguments.m_ObjectArgument
      value: 
      objectReference: {fileID: 8516126842298657330, guid: beaefa1c4216d08498d3c6bae21d1ea6, type: 3}
    - target: {fileID: 5982189013922275259, guid: 0dd8769c9445bd148b6138be0113e2ba, type: 3}
      propertyPath: preDeadEvent.m_PersistentCalls.m_Calls.Array.data[0].m_Arguments.m_StringArgument
      value: Die
      objectReference: {fileID: 0}
    - target: {fileID: 5982189013922275259, guid: 0dd8769c9445bd148b6138be0113e2ba, type: 3}
      propertyPath: preDeadEvent.m_PersistentCalls.m_Calls.Array.data[0].m_Arguments.m_ObjectArgumentAssemblyTypeName
      value: UnityEngine.Object, UnityEngine
      objectReference: {fileID: 0}
    - target: {fileID: 7156064098865048869, guid: 0dd8769c9445bd148b6138be0113e2ba, type: 3}
      propertyPath: m_Name
      value: PFB_Quicktouch
      objectReference: {fileID: 0}
    - target: {fileID: 7156064098865048871, guid: 0dd8769c9445bd148b6138be0113e2ba, type: 3}
      propertyPath: m_Sprite
      value: 
      objectReference: {fileID: 4644795532559148639, guid: 3293c24cfd9eb42448c74c2e68de9e2b, type: 3}
    - target: {fileID: 7156064098865048872, guid: 0dd8769c9445bd148b6138be0113e2ba, type: 3}
      propertyPath: m_RootOrder
      value: 0
      objectReference: {fileID: 0}
    - target: {fileID: 7156064098865048872, guid: 0dd8769c9445bd148b6138be0113e2ba, type: 3}
      propertyPath: m_LocalPosition.x
      value: 0
      objectReference: {fileID: 0}
    - target: {fileID: 7156064098865048872, guid: 0dd8769c9445bd148b6138be0113e2ba, type: 3}
      propertyPath: m_LocalPosition.y
      value: 0
      objectReference: {fileID: 0}
    - target: {fileID: 7156064098865048872, guid: 0dd8769c9445bd148b6138be0113e2ba, type: 3}
      propertyPath: m_LocalPosition.z
      value: 0
      objectReference: {fileID: 0}
    - target: {fileID: 7156064098865048872, guid: 0dd8769c9445bd148b6138be0113e2ba, type: 3}
      propertyPath: m_LocalRotation.w
      value: 0.9914449
      objectReference: {fileID: 0}
    - target: {fileID: 7156064098865048872, guid: 0dd8769c9445bd148b6138be0113e2ba, type: 3}
      propertyPath: m_LocalRotation.x
      value: -0.13052624
      objectReference: {fileID: 0}
    - target: {fileID: 7156064098865048872, guid: 0dd8769c9445bd148b6138be0113e2ba, type: 3}
      propertyPath: m_LocalRotation.y
      value: 0
      objectReference: {fileID: 0}
    - target: {fileID: 7156064098865048872, guid: 0dd8769c9445bd148b6138be0113e2ba, type: 3}
      propertyPath: m_LocalRotation.z
      value: 0
      objectReference: {fileID: 0}
    - target: {fileID: 7156064098865048872, guid: 0dd8769c9445bd148b6138be0113e2ba, type: 3}
      propertyPath: m_LocalEulerAnglesHint.x
      value: -15
      objectReference: {fileID: 0}
    - target: {fileID: 7156064098865048872, guid: 0dd8769c9445bd148b6138be0113e2ba, type: 3}
      propertyPath: m_LocalEulerAnglesHint.y
      value: 0
      objectReference: {fileID: 0}
    - target: {fileID: 7156064098865048872, guid: 0dd8769c9445bd148b6138be0113e2ba, type: 3}
      propertyPath: m_LocalEulerAnglesHint.z
      value: 0
      objectReference: {fileID: 0}
    m_RemovedComponents: []
  m_SourcePrefab: {fileID: 100100000, guid: 0dd8769c9445bd148b6138be0113e2ba, type: 3}
--- !u!95 &1188602589535711775 stripped
Animator:
  m_CorrespondingSourceObject: {fileID: 5504408897073596053, guid: 0dd8769c9445bd148b6138be0113e2ba, type: 3}
  m_PrefabInstance: {fileID: 6637555414880810122}
  m_PrefabAsset: {fileID: 0}
