%YAML 1.1
%TAG !u! tag:unity3d.com,2011:
--- !u!1001 &6637555414880810122
PrefabInstance:
  m_ObjectHideFlags: 0
  serializedVersion: 2
  m_Modification:
    m_TransformParent: {fileID: 0}
    m_Modifications:
    - target: {fileID: 5504408897073596053, guid: 0dd8769c9445bd148b6138be0113e2ba, type: 3}
      propertyPath: m_Controller
      value: 
      objectReference: {fileID: 9100000, guid: d718efd4b76565b44a2f886771bd2e8d, type: 2}
    - target: {fileID: 7156064098865048869, guid: 0dd8769c9445bd148b6138be0113e2ba, type: 3}
      propertyPath: m_Name
      value: PFB_Slime_Green
      objectReference: {fileID: 0}
    - target: {fileID: 7156064098865048872, guid: 0dd8769c9445bd148b6138be0113e2ba, type: 3}
      propertyPath: m_RootOrder
      value: 0
      objectReference: {fileID: 0}
    - target: {fileID: 7156064098865048872, guid: 0dd8769c9445bd148b6138be0113e2ba, type: 3}
      propertyPath: m_LocalPosition.x
      value: 0
      objectReference: {fileID: 0}
    - target: {fileID: 7156064098865048872, guid: 0dd8769c9445bd148b6138be0113e2ba, type: 3}
      propertyPath: m_LocalPosition.y
      value: 0
      objectReference: {fileID: 0}
    - target: {fileID: 7156064098865048872, guid: 0dd8769c9445bd148b6138be0113e2ba, type: 3}
      propertyPath: m_LocalPosition.z
      value: 0
      objectReference: {fileID: 0}
    - target: {fileID: 7156064098865048872, guid: 0dd8769c9445bd148b6138be0113e2ba, type: 3}
      propertyPath: m_LocalRotation.w
      value: 0.9914449
      objectReference: {fileID: 0}
    - target: {fileID: 7156064098865048872, guid: 0dd8769c9445bd148b6138be0113e2ba, type: 3}
      propertyPath: m_LocalRotation.x
      value: -0.13052624
      objectReference: {fileID: 0}
    - target: {fileID: 7156064098865048872, guid: 0dd8769c9445bd148b6138be0113e2ba, type: 3}
      propertyPath: m_LocalRotation.y
      value: 0
      objectReference: {fileID: 0}
    - target: {fileID: 7156064098865048872, guid: 0dd8769c9445bd148b6138be0113e2ba, type: 3}
      propertyPath: m_LocalRotation.z
      value: 0
      objectReference: {fileID: 0}
    - target: {fileID: 7156064098865048872, guid: 0dd8769c9445bd148b6138be0113e2ba, type: 3}
      propertyPath: m_LocalEulerAnglesHint.x
      value: -15
      objectReference: {fileID: 0}
    - target: {fileID: 7156064098865048872, guid: 0dd8769c9445bd148b6138be0113e2ba, type: 3}
      propertyPath: m_LocalEulerAnglesHint.y
      value: 0
      objectReference: {fileID: 0}
    - target: {fileID: 7156064098865048872, guid: 0dd8769c9445bd148b6138be0113e2ba, type: 3}
      propertyPath: m_LocalEulerAnglesHint.z
      value: 0
      objectReference: {fileID: 0}
    - target: {fileID: 8959937155323163823, guid: 0dd8769c9445bd148b6138be0113e2ba, type: 3}
      propertyPath: m_IsTrigger
      value: 1
      objectReference: {fileID: 0}
    m_RemovedComponents: []
  m_SourcePrefab: {fileID: 100100000, guid: 0dd8769c9445bd148b6138be0113e2ba, type: 3}
