%YAML 1.1
%TAG !u! tag:unity3d.com,2011:
--- !u!74 &7400000
AnimationClip:
  m_ObjectHideFlags: 0
  m_CorrespondingSourceObject: {fileID: 0}
  m_PrefabInstance: {fileID: 0}
  m_PrefabAsset: {fileID: 0}
  m_Name: Player_Attack_Melee_StickyWhack_Secondary_Down
  serializedVersion: 6
  m_Legacy: 0
  m_Compressed: 0
  m_UseHighQualityCurve: 1
  m_RotationCurves: []
  m_CompressedRotationCurves: []
  m_EulerCurves: []
  m_PositionCurves: []
  m_ScaleCurves: []
  m_FloatCurves: []
  m_PPtrCurves:
  - curve:
    - time: 0
      value: {fileID: -73040907103366027, guid: 95ee8161dc013104ba0a35caa657f130, type: 3}
    - time: 0.23333333
      value: {fileID: -7685047684457360024, guid: 95ee8161dc013104ba0a35caa657f130, type: 3}
    - time: 0.48333332
      value: {fileID: 2337530887247302100, guid: 95ee8161dc013104ba0a35caa657f130, type: 3}
    - time: 0.71666664
      value: {fileID: -1330380681992270407, guid: 95ee8161dc013104ba0a35caa657f130, type: 3}
    - time: 0.93333334
      value: {fileID: -1428282052918123629, guid: 95ee8161dc013104ba0a35caa657f130, type: 3}
    - time: 1.2166667
      value: {fileID: 431795411201528801, guid: 95ee8161dc013104ba0a35caa657f130, type: 3}
    - time: 1.4
      value: {fileID: 4005467896379936153, guid: 95ee8161dc013104ba0a35caa657f130, type: 3}
    - time: 1.55
      value: {fileID: 3624950414261590463, guid: 95ee8161dc013104ba0a35caa657f130, type: 3}
    - time: 1.6833333
      value: {fileID: 2713645903407651711, guid: 95ee8161dc013104ba0a35caa657f130, type: 3}
    - time: 1.85
      value: {fileID: 3006563075065657477, guid: 95ee8161dc013104ba0a35caa657f130, type: 3}
    - time: 2.0333333
      value: {fileID: 4317754085844404156, guid: 95ee8161dc013104ba0a35caa657f130, type: 3}
    - time: 2.1833334
      value: {fileID: -3364484486269204904, guid: 95ee8161dc013104ba0a35caa657f130, type: 3}
    - time: 2.2833333
      value: {fileID: -8630515725129439303, guid: 95ee8161dc013104ba0a35caa657f130, type: 3}
    - time: 2.4166667
      value: {fileID: 7326393368719177074, guid: 95ee8161dc013104ba0a35caa657f130, type: 3}
    - time: 2.5166667
      value: {fileID: 7326393368719177074, guid: 95ee8161dc013104ba0a35caa657f130, type: 3}
    attribute: m_Sprite
    path: 
    classID: 212
    script: {fileID: 0}
  m_SampleRate: 60
  m_WrapMode: 0
  m_Bounds:
    m_Center: {x: 0, y: 0, z: 0}
    m_Extent: {x: 0, y: 0, z: 0}
  m_ClipBindingConstant:
    genericBindings:
    - serializedVersion: 2
      path: 0
      attribute: 0
      script: {fileID: 0}
      typeID: 212
      customType: 23
      isPPtrCurve: 1
    pptrCurveMapping:
    - {fileID: -73040907103366027, guid: 95ee8161dc013104ba0a35caa657f130, type: 3}
    - {fileID: -7685047684457360024, guid: 95ee8161dc013104ba0a35caa657f130, type: 3}
    - {fileID: 2337530887247302100, guid: 95ee8161dc013104ba0a35caa657f130, type: 3}
    - {fileID: -1330380681992270407, guid: 95ee8161dc013104ba0a35caa657f130, type: 3}
    - {fileID: -1428282052918123629, guid: 95ee8161dc013104ba0a35caa657f130, type: 3}
    - {fileID: 431795411201528801, guid: 95ee8161dc013104ba0a35caa657f130, type: 3}
    - {fileID: 4005467896379936153, guid: 95ee8161dc013104ba0a35caa657f130, type: 3}
    - {fileID: 3624950414261590463, guid: 95ee8161dc013104ba0a35caa657f130, type: 3}
    - {fileID: 2713645903407651711, guid: 95ee8161dc013104ba0a35caa657f130, type: 3}
    - {fileID: 3006563075065657477, guid: 95ee8161dc013104ba0a35caa657f130, type: 3}
    - {fileID: 4317754085844404156, guid: 95ee8161dc013104ba0a35caa657f130, type: 3}
    - {fileID: -3364484486269204904, guid: 95ee8161dc013104ba0a35caa657f130, type: 3}
    - {fileID: -8630515725129439303, guid: 95ee8161dc013104ba0a35caa657f130, type: 3}
    - {fileID: 7326393368719177074, guid: 95ee8161dc013104ba0a35caa657f130, type: 3}
    - {fileID: 7326393368719177074, guid: 95ee8161dc013104ba0a35caa657f130, type: 3}
  m_AnimationClipSettings:
    serializedVersion: 2
    m_AdditiveReferencePoseClip: {fileID: 0}
    m_AdditiveReferencePoseTime: 0
    m_StartTime: 0
    m_StopTime: 2.5333333
    m_OrientationOffsetY: 0
    m_Level: 0
    m_CycleOffset: 0
    m_HasAdditiveReferencePose: 0
    m_LoopTime: 0
    m_LoopBlend: 0
    m_LoopBlendOrientation: 0
    m_LoopBlendPositionY: 0
    m_LoopBlendPositionXZ: 0
    m_KeepOriginalOrientation: 0
    m_KeepOriginalPositionY: 1
    m_KeepOriginalPositionXZ: 0
    m_HeightFromFeet: 0
    m_Mirror: 0
  m_EditorCurves: []
  m_EulerEditorCurves: []
  m_HasGenericRootTransform: 0
  m_HasMotionFloatCurves: 0
  m_Events: []
