%YAML 1.1
%TAG !u! tag:unity3d.com,2011:
--- !u!74 &7400000
AnimationClip:
  m_ObjectHideFlags: 0
  m_CorrespondingSourceObject: {fileID: 0}
  m_PrefabInstance: {fileID: 0}
  m_PrefabAsset: {fileID: 0}
  m_Name: Player_Idle_Left
  serializedVersion: 6
  m_Legacy: 0
  m_Compressed: 0
  m_UseHighQualityCurve: 1
  m_RotationCurves: []
  m_CompressedRotationCurves: []
  m_EulerCurves: []
  m_PositionCurves: []
  m_ScaleCurves: []
  m_FloatCurves: []
  m_PPtrCurves:
  - curve:
    - time: 0
      value: {fileID: 5128139416407825598, guid: 95ee8161dc013104ba0a35caa657f130, type: 3}
    - time: 0.18333334
      value: {fileID: 422003415611211698, guid: 95ee8161dc013104ba0a35caa657f130, type: 3}
    - time: 0.4
      value: {fileID: 9084739985535002627, guid: 95ee8161dc013104ba0a35caa657f130, type: 3}
    - time: 0.5833333
      value: {fileID: -188729448549503731, guid: 95ee8161dc013104ba0a35caa657f130, type: 3}
    - time: 0.78333336
      value: {fileID: 5249347492800062818, guid: 95ee8161dc013104ba0a35caa657f130, type: 3}
    - time: 1
      value: {fileID: 3029715396228028, guid: 95ee8161dc013104ba0a35caa657f130, type: 3}
    - time: 1.1833333
      value: {fileID: -1330082305765563740, guid: 95ee8161dc013104ba0a35caa657f130, type: 3}
    - time: 1.3666667
      value: {fileID: 2161860462504804012, guid: 95ee8161dc013104ba0a35caa657f130, type: 3}
    - time: 1.5833334
      value: {fileID: 2437507503379313437, guid: 95ee8161dc013104ba0a35caa657f130, type: 3}
    - time: 1.7666667
      value: {fileID: 3922623099021903398, guid: 95ee8161dc013104ba0a35caa657f130, type: 3}
    - time: 1.95
      value: {fileID: 2011351955375275280, guid: 95ee8161dc013104ba0a35caa657f130, type: 3}
    - time: 2.1833334
      value: {fileID: -7414084265160254627, guid: 95ee8161dc013104ba0a35caa657f130, type: 3}
    - time: 2.3666666
      value: {fileID: 6444200868445698672, guid: 95ee8161dc013104ba0a35caa657f130, type: 3}
    - time: 2.5666666
      value: {fileID: 4770833144759050369, guid: 95ee8161dc013104ba0a35caa657f130, type: 3}
    - time: 2.75
      value: {fileID: 1324366991441436959, guid: 95ee8161dc013104ba0a35caa657f130, type: 3}
    - time: 2.9666667
      value: {fileID: 1785579479777403104, guid: 95ee8161dc013104ba0a35caa657f130, type: 3}
    - time: 3.1666667
      value: {fileID: 5128139416407825598, guid: 95ee8161dc013104ba0a35caa657f130, type: 3}
    attribute: m_Sprite
    path: 
    classID: 212
    script: {fileID: 0}
  m_SampleRate: 60
  m_WrapMode: 0
  m_Bounds:
    m_Center: {x: 0, y: 0, z: 0}
    m_Extent: {x: 0, y: 0, z: 0}
  m_ClipBindingConstant:
    genericBindings:
    - serializedVersion: 2
      path: 0
      attribute: 0
      script: {fileID: 0}
      typeID: 212
      customType: 23
      isPPtrCurve: 1
    pptrCurveMapping:
    - {fileID: 5128139416407825598, guid: 95ee8161dc013104ba0a35caa657f130, type: 3}
    - {fileID: 422003415611211698, guid: 95ee8161dc013104ba0a35caa657f130, type: 3}
    - {fileID: 9084739985535002627, guid: 95ee8161dc013104ba0a35caa657f130, type: 3}
    - {fileID: -188729448549503731, guid: 95ee8161dc013104ba0a35caa657f130, type: 3}
    - {fileID: 5249347492800062818, guid: 95ee8161dc013104ba0a35caa657f130, type: 3}
    - {fileID: 3029715396228028, guid: 95ee8161dc013104ba0a35caa657f130, type: 3}
    - {fileID: -1330082305765563740, guid: 95ee8161dc013104ba0a35caa657f130, type: 3}
    - {fileID: 2161860462504804012, guid: 95ee8161dc013104ba0a35caa657f130, type: 3}
    - {fileID: 2437507503379313437, guid: 95ee8161dc013104ba0a35caa657f130, type: 3}
    - {fileID: 3922623099021903398, guid: 95ee8161dc013104ba0a35caa657f130, type: 3}
    - {fileID: 2011351955375275280, guid: 95ee8161dc013104ba0a35caa657f130, type: 3}
    - {fileID: -7414084265160254627, guid: 95ee8161dc013104ba0a35caa657f130, type: 3}
    - {fileID: 6444200868445698672, guid: 95ee8161dc013104ba0a35caa657f130, type: 3}
    - {fileID: 4770833144759050369, guid: 95ee8161dc013104ba0a35caa657f130, type: 3}
    - {fileID: 1324366991441436959, guid: 95ee8161dc013104ba0a35caa657f130, type: 3}
    - {fileID: 1785579479777403104, guid: 95ee8161dc013104ba0a35caa657f130, type: 3}
    - {fileID: 5128139416407825598, guid: 95ee8161dc013104ba0a35caa657f130, type: 3}
  m_AnimationClipSettings:
    serializedVersion: 2
    m_AdditiveReferencePoseClip: {fileID: 0}
    m_AdditiveReferencePoseTime: 0
    m_StartTime: 0
    m_StopTime: 3.1833334
    m_OrientationOffsetY: 0
    m_Level: 0
    m_CycleOffset: 0
    m_HasAdditiveReferencePose: 0
    m_LoopTime: 1
    m_LoopBlend: 0
    m_LoopBlendOrientation: 0
    m_LoopBlendPositionY: 0
    m_LoopBlendPositionXZ: 0
    m_KeepOriginalOrientation: 0
    m_KeepOriginalPositionY: 1
    m_KeepOriginalPositionXZ: 0
    m_HeightFromFeet: 0
    m_Mirror: 0
  m_EditorCurves: []
  m_EulerEditorCurves: []
  m_HasGenericRootTransform: 0
  m_HasMotionFloatCurves: 0
  m_Events: []
