%YAML 1.1
%TAG !u! tag:unity3d.com,2011:
--- !u!74 &7400000
AnimationClip:
  m_ObjectHideFlags: 0
  m_CorrespondingSourceObject: {fileID: 0}
  m_PrefabInstance: {fileID: 0}
  m_PrefabAsset: {fileID: 0}
  m_Name: Player_Attack_Melee_Flashmob_Secondary_Down
  serializedVersion: 6
  m_Legacy: 0
  m_Compressed: 0
  m_UseHighQualityCurve: 1
  m_RotationCurves: []
  m_CompressedRotationCurves: []
  m_EulerCurves: []
  m_PositionCurves: []
  m_ScaleCurves: []
  m_FloatCurves: []
  m_PPtrCurves:
  - curve:
    - time: 0
      value: {fileID: 5720608702872205795, guid: 95ee8161dc013104ba0a35caa657f130, type: 3}
    - time: 0.23333333
      value: {fileID: -5832420765993851559, guid: 95ee8161dc013104ba0a35caa657f130, type: 3}
    - time: 0.45
      value: {fileID: 7628226532388191343, guid: 95ee8161dc013104ba0a35caa657f130, type: 3}
    - time: 0.68333334
      value: {fileID: -528239695050943349, guid: 95ee8161dc013104ba0a35caa657f130, type: 3}
    - time: 0.9166667
      value: {fileID: -4337332859339181721, guid: 95ee8161dc013104ba0a35caa657f130, type: 3}
    - time: 1.1333333
      value: {fileID: -6034917191200741412, guid: 95ee8161dc013104ba0a35caa657f130, type: 3}
    - time: 1.3666667
      value: {fileID: -5391812976163832629, guid: 95ee8161dc013104ba0a35caa657f130, type: 3}
    - time: 1.5
      value: {fileID: 5720608702872205795, guid: 95ee8161dc013104ba0a35caa657f130, type: 3}
    attribute: m_Sprite
    path: 
    classID: 212
    script: {fileID: 0}
  m_SampleRate: 60
  m_WrapMode: 0
  m_Bounds:
    m_Center: {x: 0, y: 0, z: 0}
    m_Extent: {x: 0, y: 0, z: 0}
  m_ClipBindingConstant:
    genericBindings:
    - serializedVersion: 2
      path: 0
      attribute: 0
      script: {fileID: 0}
      typeID: 212
      customType: 23
      isPPtrCurve: 1
    pptrCurveMapping:
    - {fileID: 5720608702872205795, guid: 95ee8161dc013104ba0a35caa657f130, type: 3}
    - {fileID: -5832420765993851559, guid: 95ee8161dc013104ba0a35caa657f130, type: 3}
    - {fileID: 7628226532388191343, guid: 95ee8161dc013104ba0a35caa657f130, type: 3}
    - {fileID: -528239695050943349, guid: 95ee8161dc013104ba0a35caa657f130, type: 3}
    - {fileID: -4337332859339181721, guid: 95ee8161dc013104ba0a35caa657f130, type: 3}
    - {fileID: -6034917191200741412, guid: 95ee8161dc013104ba0a35caa657f130, type: 3}
    - {fileID: -5391812976163832629, guid: 95ee8161dc013104ba0a35caa657f130, type: 3}
    - {fileID: 5720608702872205795, guid: 95ee8161dc013104ba0a35caa657f130, type: 3}
  m_AnimationClipSettings:
    serializedVersion: 2
    m_AdditiveReferencePoseClip: {fileID: 0}
    m_AdditiveReferencePoseTime: 0
    m_StartTime: 0
    m_StopTime: 1.5166667
    m_OrientationOffsetY: 0
    m_Level: 0
    m_CycleOffset: 0
    m_HasAdditiveReferencePose: 0
    m_LoopTime: 0
    m_LoopBlend: 0
    m_LoopBlendOrientation: 0
    m_LoopBlendPositionY: 0
    m_LoopBlendPositionXZ: 0
    m_KeepOriginalOrientation: 0
    m_KeepOriginalPositionY: 1
    m_KeepOriginalPositionXZ: 0
    m_HeightFromFeet: 0
    m_Mirror: 0
  m_EditorCurves: []
  m_EulerEditorCurves: []
  m_HasGenericRootTransform: 0
  m_HasMotionFloatCurves: 0
  m_Events: []
