%YAML 1.1
%TAG !u! tag:unity3d.com,2011:
--- !u!74 &7400000
AnimationClip:
  m_ObjectHideFlags: 0
  m_CorrespondingSourceObject: {fileID: 0}
  m_PrefabInstance: {fileID: 0}
  m_PrefabAsset: {fileID: 0}
  m_Name: Slime_Blue_Death
  serializedVersion: 6
  m_Legacy: 0
  m_Compressed: 0
  m_UseHighQualityCurve: 1
  m_RotationCurves: []
  m_CompressedRotationCurves: []
  m_EulerCurves: []
  m_PositionCurves: []
  m_ScaleCurves: []
  m_FloatCurves: []
  m_PPtrCurves:
  - curve:
    - time: 0
      value: {fileID: 2694538518359262400, guid: 99cf53c7b4de4fe438a78d5e78f8c217, type: 3}
    - time: 0.15
      value: {fileID: -4144355370140679062, guid: 99cf53c7b4de4fe438a78d5e78f8c217, type: 3}
    - time: 0.3
      value: {fileID: -755827500280410466, guid: 99cf53c7b4de4fe438a78d5e78f8c217, type: 3}
    - time: 0.45
      value: {fileID: -3806549356873775357, guid: 99cf53c7b4de4fe438a78d5e78f8c217, type: 3}
    - time: 0.6
      value: {fileID: -5478603145623744648, guid: 99cf53c7b4de4fe438a78d5e78f8c217, type: 3}
    - time: 0.75
      value: {fileID: 8565421857874041932, guid: 99cf53c7b4de4fe438a78d5e78f8c217, type: 3}
    - time: 0.9
      value: {fileID: -4116937762213008959, guid: 99cf53c7b4de4fe438a78d5e78f8c217, type: 3}
    - time: 1.05
      value: {fileID: -5721724838634379581, guid: 99cf53c7b4de4fe438a78d5e78f8c217, type: 3}
    - time: 1.2
      value: {fileID: 5722797499893033536, guid: 99cf53c7b4de4fe438a78d5e78f8c217, type: 3}
    - time: 1.35
      value: {fileID: 835319402320512163, guid: 99cf53c7b4de4fe438a78d5e78f8c217, type: 3}
    - time: 1.5
      value: {fileID: -8967590173801106176, guid: 99cf53c7b4de4fe438a78d5e78f8c217, type: 3}
    - time: 1.6
      value: {fileID: -8967590173801106176, guid: 99cf53c7b4de4fe438a78d5e78f8c217, type: 3}
    attribute: m_Sprite
    path: 
    classID: 212
    script: {fileID: 0}
  m_SampleRate: 60
  m_WrapMode: 0
  m_Bounds:
    m_Center: {x: 0, y: 0, z: 0}
    m_Extent: {x: 0, y: 0, z: 0}
  m_ClipBindingConstant:
    genericBindings:
    - serializedVersion: 2
      path: 0
      attribute: 0
      script: {fileID: 0}
      typeID: 212
      customType: 23
      isPPtrCurve: 1
    pptrCurveMapping:
    - {fileID: 2694538518359262400, guid: 99cf53c7b4de4fe438a78d5e78f8c217, type: 3}
    - {fileID: -4144355370140679062, guid: 99cf53c7b4de4fe438a78d5e78f8c217, type: 3}
    - {fileID: -755827500280410466, guid: 99cf53c7b4de4fe438a78d5e78f8c217, type: 3}
    - {fileID: -3806549356873775357, guid: 99cf53c7b4de4fe438a78d5e78f8c217, type: 3}
    - {fileID: -5478603145623744648, guid: 99cf53c7b4de4fe438a78d5e78f8c217, type: 3}
    - {fileID: 8565421857874041932, guid: 99cf53c7b4de4fe438a78d5e78f8c217, type: 3}
    - {fileID: -4116937762213008959, guid: 99cf53c7b4de4fe438a78d5e78f8c217, type: 3}
    - {fileID: -5721724838634379581, guid: 99cf53c7b4de4fe438a78d5e78f8c217, type: 3}
    - {fileID: 5722797499893033536, guid: 99cf53c7b4de4fe438a78d5e78f8c217, type: 3}
    - {fileID: 835319402320512163, guid: 99cf53c7b4de4fe438a78d5e78f8c217, type: 3}
    - {fileID: -8967590173801106176, guid: 99cf53c7b4de4fe438a78d5e78f8c217, type: 3}
    - {fileID: -8967590173801106176, guid: 99cf53c7b4de4fe438a78d5e78f8c217, type: 3}
  m_AnimationClipSettings:
    serializedVersion: 2
    m_AdditiveReferencePoseClip: {fileID: 0}
    m_AdditiveReferencePoseTime: 0
    m_StartTime: 0
    m_StopTime: 1.6166667
    m_OrientationOffsetY: 0
    m_Level: 0
    m_CycleOffset: 0
    m_HasAdditiveReferencePose: 0
    m_LoopTime: 1
    m_LoopBlend: 0
    m_LoopBlendOrientation: 0
    m_LoopBlendPositionY: 0
    m_LoopBlendPositionXZ: 0
    m_KeepOriginalOrientation: 0
    m_KeepOriginalPositionY: 1
    m_KeepOriginalPositionXZ: 0
    m_HeightFromFeet: 0
    m_Mirror: 0
  m_EditorCurves: []
  m_EulerEditorCurves: []
  m_HasGenericRootTransform: 0
  m_HasMotionFloatCurves: 0
  m_Events: []
