%YAML 1.1
%TAG !u! tag:unity3d.com,2011:
--- !u!74 &7400000
AnimationClip:
  m_ObjectHideFlags: 0
  m_CorrespondingSourceObject: {fileID: 0}
  m_PrefabInstance: {fileID: 0}
  m_PrefabAsset: {fileID: 0}
  m_Name: Molotov_Spin_Up
  serializedVersion: 6
  m_Legacy: 0
  m_Compressed: 0
  m_UseHighQualityCurve: 1
  m_RotationCurves: []
  m_CompressedRotationCurves: []
  m_EulerCurves:
  - curve:
      serializedVersion: 2
      m_Curve:
      - serializedVersion: 3
        time: 0
        value: {x: 0, y: 0, z: -90}
        inSlope: {x: 0, y: 0, z: 0}
        outSlope: {x: 0, y: 0, z: 0}
        tangentMode: 0
        weightedMode: 0
        inWeight: {x: 0.33333334, y: 0.33333334, z: 0.33333334}
        outWeight: {x: 0.33333334, y: 0.33333334, z: 0.33333334}
      - serializedVersion: 3
        time: 2.5
        value: {x: 0, y: 0, z: -90}
        inSlope: {x: 0, y: 0, z: 0}
        outSlope: {x: 0, y: 0, z: 0}
        tangentMode: 0
        weightedMode: 0
        inWeight: {x: 0.33333334, y: 0.33333334, z: 0.33333334}
        outWeight: {x: 0.33333334, y: 0.33333334, z: 0.33333334}
      m_PreInfinity: 2
      m_PostInfinity: 2
      m_RotationOrder: 4
    path: 
  m_PositionCurves: []
  m_ScaleCurves: []
  m_FloatCurves:
  - curve:
      serializedVersion: 2
      m_Curve:
      - serializedVersion: 3
        time: 0
        value: 1
        inSlope: Infinity
        outSlope: Infinity
        tangentMode: 103
        weightedMode: 0
        inWeight: 0
        outWeight: 0
      - serializedVersion: 3
        time: 2.5
        value: 0
        inSlope: Infinity
        outSlope: Infinity
        tangentMode: 103
        weightedMode: 0
        inWeight: 0
        outWeight: 0
      m_PreInfinity: 2
      m_PostInfinity: 2
      m_RotationOrder: 4
    attribute: m_FlipX
    path: 
    classID: 212
    script: {fileID: 0}
  m_PPtrCurves:
  - curve:
    - time: 0
      value: {fileID: 5077939397140931432, guid: 21400f4844abe8149bda43584334393d, type: 3}
    - time: 0.083333336
      value: {fileID: -3311855648091468530, guid: 21400f4844abe8149bda43584334393d, type: 3}
    - time: 0.16666667
      value: {fileID: -6216598983164923219, guid: 21400f4844abe8149bda43584334393d, type: 3}
    - time: 0.25
      value: {fileID: 1829166685536433968, guid: 21400f4844abe8149bda43584334393d, type: 3}
    - time: 0.31666666
      value: {fileID: 4078804813612036829, guid: 21400f4844abe8149bda43584334393d, type: 3}
    - time: 0.4
      value: {fileID: 7341659078321208846, guid: 21400f4844abe8149bda43584334393d, type: 3}
    - time: 0.48333332
      value: {fileID: -8414455769033083318, guid: 21400f4844abe8149bda43584334393d, type: 3}
    - time: 0.56666666
      value: {fileID: 4737200112485965995, guid: 21400f4844abe8149bda43584334393d, type: 3}
    - time: 0.65
      value: {fileID: -2879726727654607459, guid: 21400f4844abe8149bda43584334393d, type: 3}
    - time: 0.73333335
      value: {fileID: 3335666934362275188, guid: 21400f4844abe8149bda43584334393d, type: 3}
    - time: 0.8
      value: {fileID: 366320825795904971, guid: 21400f4844abe8149bda43584334393d, type: 3}
    - time: 0.8833333
      value: {fileID: 1250837481714138802, guid: 21400f4844abe8149bda43584334393d, type: 3}
    - time: 0.96666664
      value: {fileID: -6990080150777467148, guid: 21400f4844abe8149bda43584334393d, type: 3}
    - time: 1.05
      value: {fileID: 5498558413970114552, guid: 21400f4844abe8149bda43584334393d, type: 3}
    - time: 1.1333333
      value: {fileID: -8652105595701845844, guid: 21400f4844abe8149bda43584334393d, type: 3}
    - time: 1.2166667
      value: {fileID: 7704152114105197675, guid: 21400f4844abe8149bda43584334393d, type: 3}
    - time: 1.2833333
      value: {fileID: 8994554343276391216, guid: 21400f4844abe8149bda43584334393d, type: 3}
    - time: 1.3666667
      value: {fileID: 376769064179991341, guid: 21400f4844abe8149bda43584334393d, type: 3}
    - time: 1.45
      value: {fileID: 5932851205305887855, guid: 21400f4844abe8149bda43584334393d, type: 3}
    - time: 1.5333333
      value: {fileID: 2134055136419017045, guid: 21400f4844abe8149bda43584334393d, type: 3}
    - time: 1.6166667
      value: {fileID: -4997492517662584210, guid: 21400f4844abe8149bda43584334393d, type: 3}
    - time: 1.7
      value: {fileID: 7497027467430587487, guid: 21400f4844abe8149bda43584334393d, type: 3}
    - time: 1.7666667
      value: {fileID: 5457169161942871129, guid: 21400f4844abe8149bda43584334393d, type: 3}
    - time: 1.85
      value: {fileID: 4863116209346918450, guid: 21400f4844abe8149bda43584334393d, type: 3}
    - time: 1.9333333
      value: {fileID: -1322545007041096000, guid: 21400f4844abe8149bda43584334393d, type: 3}
    - time: 2.0166667
      value: {fileID: 1240127215847019661, guid: 21400f4844abe8149bda43584334393d, type: 3}
    - time: 2.1
      value: {fileID: -8196926532558246735, guid: 21400f4844abe8149bda43584334393d, type: 3}
    - time: 2.1833334
      value: {fileID: -1098409545723498725, guid: 21400f4844abe8149bda43584334393d, type: 3}
    - time: 2.25
      value: {fileID: -3454920014165214092, guid: 21400f4844abe8149bda43584334393d, type: 3}
    - time: 2.3333333
      value: {fileID: 7330998874080318370, guid: 21400f4844abe8149bda43584334393d, type: 3}
    - time: 2.4166667
      value: {fileID: 5565441094889199540, guid: 21400f4844abe8149bda43584334393d, type: 3}
    - time: 2.5
      value: {fileID: 8428580371293288844, guid: 21400f4844abe8149bda43584334393d, type: 3}
    attribute: m_Sprite
    path: 
    classID: 212
    script: {fileID: 0}
  m_SampleRate: 60
  m_WrapMode: 0
  m_Bounds:
    m_Center: {x: 0, y: 0, z: 0}
    m_Extent: {x: 0, y: 0, z: 0}
  m_ClipBindingConstant:
    genericBindings:
    - serializedVersion: 2
      path: 0
      attribute: 555744692
      script: {fileID: 0}
      typeID: 212
      customType: 0
      isPPtrCurve: 0
    - serializedVersion: 2
      path: 0
      attribute: 0
      script: {fileID: 0}
      typeID: 212
      customType: 23
      isPPtrCurve: 1
    - serializedVersion: 2
      path: 0
      attribute: 4
      script: {fileID: 0}
      typeID: 4
      customType: 4
      isPPtrCurve: 0
    pptrCurveMapping:
    - {fileID: 5077939397140931432, guid: 21400f4844abe8149bda43584334393d, type: 3}
    - {fileID: -3311855648091468530, guid: 21400f4844abe8149bda43584334393d, type: 3}
    - {fileID: -6216598983164923219, guid: 21400f4844abe8149bda43584334393d, type: 3}
    - {fileID: 1829166685536433968, guid: 21400f4844abe8149bda43584334393d, type: 3}
    - {fileID: 4078804813612036829, guid: 21400f4844abe8149bda43584334393d, type: 3}
    - {fileID: 7341659078321208846, guid: 21400f4844abe8149bda43584334393d, type: 3}
    - {fileID: -8414455769033083318, guid: 21400f4844abe8149bda43584334393d, type: 3}
    - {fileID: 4737200112485965995, guid: 21400f4844abe8149bda43584334393d, type: 3}
    - {fileID: -2879726727654607459, guid: 21400f4844abe8149bda43584334393d, type: 3}
    - {fileID: 3335666934362275188, guid: 21400f4844abe8149bda43584334393d, type: 3}
    - {fileID: 366320825795904971, guid: 21400f4844abe8149bda43584334393d, type: 3}
    - {fileID: 1250837481714138802, guid: 21400f4844abe8149bda43584334393d, type: 3}
    - {fileID: -6990080150777467148, guid: 21400f4844abe8149bda43584334393d, type: 3}
    - {fileID: 5498558413970114552, guid: 21400f4844abe8149bda43584334393d, type: 3}
    - {fileID: -8652105595701845844, guid: 21400f4844abe8149bda43584334393d, type: 3}
    - {fileID: 7704152114105197675, guid: 21400f4844abe8149bda43584334393d, type: 3}
    - {fileID: 8994554343276391216, guid: 21400f4844abe8149bda43584334393d, type: 3}
    - {fileID: 376769064179991341, guid: 21400f4844abe8149bda43584334393d, type: 3}
    - {fileID: 5932851205305887855, guid: 21400f4844abe8149bda43584334393d, type: 3}
    - {fileID: 2134055136419017045, guid: 21400f4844abe8149bda43584334393d, type: 3}
    - {fileID: -4997492517662584210, guid: 21400f4844abe8149bda43584334393d, type: 3}
    - {fileID: 7497027467430587487, guid: 21400f4844abe8149bda43584334393d, type: 3}
    - {fileID: 5457169161942871129, guid: 21400f4844abe8149bda43584334393d, type: 3}
    - {fileID: 4863116209346918450, guid: 21400f4844abe8149bda43584334393d, type: 3}
    - {fileID: -1322545007041096000, guid: 21400f4844abe8149bda43584334393d, type: 3}
    - {fileID: 1240127215847019661, guid: 21400f4844abe8149bda43584334393d, type: 3}
    - {fileID: -8196926532558246735, guid: 21400f4844abe8149bda43584334393d, type: 3}
    - {fileID: -1098409545723498725, guid: 21400f4844abe8149bda43584334393d, type: 3}
    - {fileID: -3454920014165214092, guid: 21400f4844abe8149bda43584334393d, type: 3}
    - {fileID: 7330998874080318370, guid: 21400f4844abe8149bda43584334393d, type: 3}
    - {fileID: 5565441094889199540, guid: 21400f4844abe8149bda43584334393d, type: 3}
    - {fileID: 8428580371293288844, guid: 21400f4844abe8149bda43584334393d, type: 3}
  m_AnimationClipSettings:
    serializedVersion: 2
    m_AdditiveReferencePoseClip: {fileID: 0}
    m_AdditiveReferencePoseTime: 0
    m_StartTime: 0
    m_StopTime: 2.5166667
    m_OrientationOffsetY: 0
    m_Level: 0
    m_CycleOffset: 0
    m_HasAdditiveReferencePose: 0
    m_LoopTime: 1
    m_LoopBlend: 0
    m_LoopBlendOrientation: 0
    m_LoopBlendPositionY: 0
    m_LoopBlendPositionXZ: 0
    m_KeepOriginalOrientation: 0
    m_KeepOriginalPositionY: 1
    m_KeepOriginalPositionXZ: 0
    m_HeightFromFeet: 0
    m_Mirror: 0
  m_EditorCurves:
  - curve:
      serializedVersion: 2
      m_Curve:
      - serializedVersion: 3
        time: 0
        value: 1
        inSlope: Infinity
        outSlope: Infinity
        tangentMode: 103
        weightedMode: 0
        inWeight: 0
        outWeight: 0
      - serializedVersion: 3
        time: 2.5
        value: 0
        inSlope: Infinity
        outSlope: Infinity
        tangentMode: 103
        weightedMode: 0
        inWeight: 0
        outWeight: 0
      m_PreInfinity: 2
      m_PostInfinity: 2
      m_RotationOrder: 4
    attribute: m_FlipX
    path: 
    classID: 212
    script: {fileID: 0}
  - curve:
      serializedVersion: 2
      m_Curve:
      - serializedVersion: 3
        time: 0
        value: 0
        inSlope: 0
        outSlope: 0
        tangentMode: 136
        weightedMode: 0
        inWeight: 0.33333334
        outWeight: 0.33333334
      - serializedVersion: 3
        time: 2.5
        value: 0
        inSlope: 0
        outSlope: 0
        tangentMode: 136
        weightedMode: 0
        inWeight: 0.33333334
        outWeight: 0.33333334
      m_PreInfinity: 2
      m_PostInfinity: 2
      m_RotationOrder: 4
    attribute: localEulerAnglesRaw.x
    path: 
    classID: 4
    script: {fileID: 0}
  - curve:
      serializedVersion: 2
      m_Curve:
      - serializedVersion: 3
        time: 0
        value: 0
        inSlope: 0
        outSlope: 0
        tangentMode: 136
        weightedMode: 0
        inWeight: 0.33333334
        outWeight: 0.33333334
      - serializedVersion: 3
        time: 2.5
        value: 0
        inSlope: 0
        outSlope: 0
        tangentMode: 136
        weightedMode: 0
        inWeight: 0.33333334
        outWeight: 0.33333334
      m_PreInfinity: 2
      m_PostInfinity: 2
      m_RotationOrder: 4
    attribute: localEulerAnglesRaw.y
    path: 
    classID: 4
    script: {fileID: 0}
  - curve:
      serializedVersion: 2
      m_Curve:
      - serializedVersion: 3
        time: 0
        value: -90
        inSlope: 0
        outSlope: 0
        tangentMode: 136
        weightedMode: 0
        inWeight: 0.33333334
        outWeight: 0.33333334
      - serializedVersion: 3
        time: 2.5
        value: -90
        inSlope: 0
        outSlope: 0
        tangentMode: 136
        weightedMode: 0
        inWeight: 0.33333334
        outWeight: 0.33333334
      m_PreInfinity: 2
      m_PostInfinity: 2
      m_RotationOrder: 4
    attribute: localEulerAnglesRaw.z
    path: 
    classID: 4
    script: {fileID: 0}
  m_EulerEditorCurves:
  - curve:
      serializedVersion: 2
      m_Curve: []
      m_PreInfinity: 2
      m_PostInfinity: 2
      m_RotationOrder: 4
    attribute: m_LocalEulerAngles.x
    path: 
    classID: 4
    script: {fileID: 0}
  - curve:
      serializedVersion: 2
      m_Curve: []
      m_PreInfinity: 2
      m_PostInfinity: 2
      m_RotationOrder: 4
    attribute: m_LocalEulerAngles.y
    path: 
    classID: 4
    script: {fileID: 0}
  - curve:
      serializedVersion: 2
      m_Curve: []
      m_PreInfinity: 2
      m_PostInfinity: 2
      m_RotationOrder: 4
    attribute: m_LocalEulerAngles.z
    path: 
    classID: 4
    script: {fileID: 0}
  m_HasGenericRootTransform: 1
  m_HasMotionFloatCurves: 0
  m_Events: []
