%YAML 1.1
%TAG !u! tag:unity3d.com,2011:
--- !u!74 &7400000
AnimationClip:
  m_ObjectHideFlags: 0
  m_CorrespondingSourceObject: {fileID: 0}
  m_PrefabInstance: {fileID: 0}
  m_PrefabAsset: {fileID: 0}
  m_Name: BowMan_Death
  serializedVersion: 6
  m_Legacy: 0
  m_Compressed: 0
  m_UseHighQualityCurve: 1
  m_RotationCurves: []
  m_CompressedRotationCurves: []
  m_EulerCurves: []
  m_PositionCurves: []
  m_ScaleCurves: []
  m_FloatCurves:
  - curve:
      serializedVersion: 2
      m_Curve:
      - serializedVersion: 3
        time: 0
        value: 1
        inSlope: Infinity
        outSlope: Infinity
        tangentMode: 103
        weightedMode: 0
        inWeight: 0
        outWeight: 0
      - serializedVersion: 3
        time: 2.0166667
        value: 0
        inSlope: Infinity
        outSlope: Infinity
        tangentMode: 103
        weightedMode: 0
        inWeight: 0
        outWeight: 0
      m_PreInfinity: 2
      m_PostInfinity: 2
      m_RotationOrder: 4
    attribute: isDying
    path: 
    classID: 114
    script: {fileID: 11500000, guid: 0d0dab824fdbc31439c1132c9a12ba6d, type: 3}
  m_PPtrCurves:
  - curve:
    - time: 0
      value: {fileID: 4967366683839742696, guid: f74c9afe8d5a6aa42a530a9ed9848839, type: 3}
    - time: 0.11666667
      value: {fileID: 6751046720085271664, guid: f74c9afe8d5a6aa42a530a9ed9848839, type: 3}
    - time: 0.25
      value: {fileID: -2775105556198618426, guid: f74c9afe8d5a6aa42a530a9ed9848839, type: 3}
    - time: 0.36666667
      value: {fileID: -9211900347219594109, guid: f74c9afe8d5a6aa42a530a9ed9848839, type: 3}
    - time: 0.5
      value: {fileID: -2652602290473083270, guid: f74c9afe8d5a6aa42a530a9ed9848839, type: 3}
    - time: 0.6166667
      value: {fileID: -5302687438113551311, guid: f74c9afe8d5a6aa42a530a9ed9848839, type: 3}
    - time: 0.75
      value: {fileID: -463530519898694301, guid: f74c9afe8d5a6aa42a530a9ed9848839, type: 3}
    - time: 0.8666667
      value: {fileID: 4420875638058321704, guid: f74c9afe8d5a6aa42a530a9ed9848839, type: 3}
    - time: 0.98333335
      value: {fileID: -8629043270942896315, guid: f74c9afe8d5a6aa42a530a9ed9848839, type: 3}
    - time: 1.1333333
      value: {fileID: -3707208797008386999, guid: f74c9afe8d5a6aa42a530a9ed9848839, type: 3}
    - time: 1.25
      value: {fileID: -5065621408381940048, guid: f74c9afe8d5a6aa42a530a9ed9848839, type: 3}
    - time: 1.3833333
      value: {fileID: 7416304636358512033, guid: f74c9afe8d5a6aa42a530a9ed9848839, type: 3}
    - time: 1.5
      value: {fileID: -496285933276070060, guid: f74c9afe8d5a6aa42a530a9ed9848839, type: 3}
    - time: 1.6333333
      value: {fileID: -5271026328073442302, guid: f74c9afe8d5a6aa42a530a9ed9848839, type: 3}
    - time: 1.75
      value: {fileID: -1273729366711287296, guid: f74c9afe8d5a6aa42a530a9ed9848839, type: 3}
    - time: 1.8833333
      value: {fileID: -7598205059044051134, guid: f74c9afe8d5a6aa42a530a9ed9848839, type: 3}
    - time: 2
      value: {fileID: -6212893213278303992, guid: f74c9afe8d5a6aa42a530a9ed9848839, type: 3}
    attribute: m_Sprite
    path: 
    classID: 212
    script: {fileID: 0}
  m_SampleRate: 60
  m_WrapMode: 0
  m_Bounds:
    m_Center: {x: 0, y: 0, z: 0}
    m_Extent: {x: 0, y: 0, z: 0}
  m_ClipBindingConstant:
    genericBindings:
    - serializedVersion: 2
      path: 0
      attribute: 3659463365
      script: {fileID: 11500000, guid: 0d0dab824fdbc31439c1132c9a12ba6d, type: 3}
      typeID: 114
      customType: 0
      isPPtrCurve: 0
    - serializedVersion: 2
      path: 0
      attribute: 0
      script: {fileID: 0}
      typeID: 212
      customType: 23
      isPPtrCurve: 1
    pptrCurveMapping:
    - {fileID: 4967366683839742696, guid: f74c9afe8d5a6aa42a530a9ed9848839, type: 3}
    - {fileID: 6751046720085271664, guid: f74c9afe8d5a6aa42a530a9ed9848839, type: 3}
    - {fileID: -2775105556198618426, guid: f74c9afe8d5a6aa42a530a9ed9848839, type: 3}
    - {fileID: -9211900347219594109, guid: f74c9afe8d5a6aa42a530a9ed9848839, type: 3}
    - {fileID: -2652602290473083270, guid: f74c9afe8d5a6aa42a530a9ed9848839, type: 3}
    - {fileID: -5302687438113551311, guid: f74c9afe8d5a6aa42a530a9ed9848839, type: 3}
    - {fileID: -463530519898694301, guid: f74c9afe8d5a6aa42a530a9ed9848839, type: 3}
    - {fileID: 4420875638058321704, guid: f74c9afe8d5a6aa42a530a9ed9848839, type: 3}
    - {fileID: -8629043270942896315, guid: f74c9afe8d5a6aa42a530a9ed9848839, type: 3}
    - {fileID: -3707208797008386999, guid: f74c9afe8d5a6aa42a530a9ed9848839, type: 3}
    - {fileID: -5065621408381940048, guid: f74c9afe8d5a6aa42a530a9ed9848839, type: 3}
    - {fileID: 7416304636358512033, guid: f74c9afe8d5a6aa42a530a9ed9848839, type: 3}
    - {fileID: -496285933276070060, guid: f74c9afe8d5a6aa42a530a9ed9848839, type: 3}
    - {fileID: -5271026328073442302, guid: f74c9afe8d5a6aa42a530a9ed9848839, type: 3}
    - {fileID: -1273729366711287296, guid: f74c9afe8d5a6aa42a530a9ed9848839, type: 3}
    - {fileID: -7598205059044051134, guid: f74c9afe8d5a6aa42a530a9ed9848839, type: 3}
    - {fileID: -6212893213278303992, guid: f74c9afe8d5a6aa42a530a9ed9848839, type: 3}
  m_AnimationClipSettings:
    serializedVersion: 2
    m_AdditiveReferencePoseClip: {fileID: 0}
    m_AdditiveReferencePoseTime: 0
    m_StartTime: 0
    m_StopTime: 2.0166667
    m_OrientationOffsetY: 0
    m_Level: 0
    m_CycleOffset: 0
    m_HasAdditiveReferencePose: 0
    m_LoopTime: 1
    m_LoopBlend: 0
    m_LoopBlendOrientation: 0
    m_LoopBlendPositionY: 0
    m_LoopBlendPositionXZ: 0
    m_KeepOriginalOrientation: 0
    m_KeepOriginalPositionY: 1
    m_KeepOriginalPositionXZ: 0
    m_HeightFromFeet: 0
    m_Mirror: 0
  m_EditorCurves:
  - curve:
      serializedVersion: 2
      m_Curve:
      - serializedVersion: 3
        time: 0
        value: 1
        inSlope: Infinity
        outSlope: Infinity
        tangentMode: 103
        weightedMode: 0
        inWeight: 0
        outWeight: 0
      - serializedVersion: 3
        time: 2.0166667
        value: 0
        inSlope: Infinity
        outSlope: Infinity
        tangentMode: 103
        weightedMode: 0
        inWeight: 0
        outWeight: 0
      m_PreInfinity: 2
      m_PostInfinity: 2
      m_RotationOrder: 4
    attribute: isDying
    path: 
    classID: 114
    script: {fileID: 11500000, guid: 0d0dab824fdbc31439c1132c9a12ba6d, type: 3}
  m_EulerEditorCurves: []
  m_HasGenericRootTransform: 0
  m_HasMotionFloatCurves: 0
  m_Events: []
