%YAML 1.1
%TAG !u! tag:unity3d.com,2011:
--- !u!114 &11400000
MonoBehaviour:
  m_ObjectHideFlags: 0
  m_CorrespondingSourceObject: {fileID: 0}
  m_PrefabInstance: {fileID: 0}
  m_PrefabAsset: {fileID: 0}
  m_GameObject: {fileID: 0}
  m_Enabled: 1
  m_EditorHideFlags: 0
  m_Script: {fileID: 11500000, guid: c4d79b11a3140484a909dac52b2761c9, type: 3}
  m_Name: Shot_ Damage_UP
  m_EditorClassIdentifier: 
  _Tabname: Potion Values
  recipe: {fileID: 0}
  roomDurability: 1
  hasRoomDurability: 1
  shotType: 0
  changingAtribute: 3
  changingElement: 0
  changeValueBy: 1
  prefabOfSpawningThing: {fileID: 0}
  SpawnAmount: 1
