%YAML 1.1
%TAG !u! tag:unity3d.com,2011:
--- !u!74 &7400000
AnimationClip:
  m_ObjectHideFlags: 0
  m_CorrespondingSourceObject: {fileID: 0}
  m_PrefabInstance: {fileID: 0}
  m_PrefabAsset: {fileID: 0}
  m_Name: SSSW_Attack_Right
  serializedVersion: 6
  m_Legacy: 0
  m_Compressed: 0
  m_UseHighQualityCurve: 1
  m_RotationCurves: []
  m_CompressedRotationCurves: []
  m_EulerCurves: []
  m_PositionCurves: []
  m_ScaleCurves: []
  m_FloatCurves: []
  m_PPtrCurves:
  - curve:
    - time: 0
      value: {fileID: -8088803396171273560, guid: 407766effab1b244685209b8565a9278, type: 3}
    - time: 0.083333336
      value: {fileID: 7727753498177648552, guid: 407766effab1b244685209b8565a9278, type: 3}
    - time: 0.2
      value: {fileID: -6365551104251524676, guid: 407766effab1b244685209b8565a9278, type: 3}
    - time: 0.3
      value: {fileID: -872733397473812150, guid: 407766effab1b244685209b8565a9278, type: 3}
    - time: 0.45
      value: {fileID: 1976909022411099745, guid: 407766effab1b244685209b8565a9278, type: 3}
    - time: 0.6333333
      value: {fileID: -6795492858611725480, guid: 407766effab1b244685209b8565a9278, type: 3}
    - time: 0.8333333
      value: {fileID: -5355997050192655222, guid: 407766effab1b244685209b8565a9278, type: 3}
    - time: 1
      value: {fileID: 6495515714393704180, guid: 407766effab1b244685209b8565a9278, type: 3}
    - time: 1.1666666
      value: {fileID: 3300537580549072873, guid: 407766effab1b244685209b8565a9278, type: 3}
    - time: 1.3333334
      value: {fileID: 5492801668109144475, guid: 407766effab1b244685209b8565a9278, type: 3}
    - time: 1.4166666
      value: {fileID: -8088803396171273560, guid: 407766effab1b244685209b8565a9278, type: 3}
    attribute: m_Sprite
    path: 
    classID: 212
    script: {fileID: 0}
  m_SampleRate: 60
  m_WrapMode: 0
  m_Bounds:
    m_Center: {x: 0, y: 0, z: 0}
    m_Extent: {x: 0, y: 0, z: 0}
  m_ClipBindingConstant:
    genericBindings:
    - serializedVersion: 2
      path: 0
      attribute: 0
      script: {fileID: 0}
      typeID: 212
      customType: 23
      isPPtrCurve: 1
    pptrCurveMapping:
    - {fileID: -8088803396171273560, guid: 407766effab1b244685209b8565a9278, type: 3}
    - {fileID: 7727753498177648552, guid: 407766effab1b244685209b8565a9278, type: 3}
    - {fileID: -6365551104251524676, guid: 407766effab1b244685209b8565a9278, type: 3}
    - {fileID: -872733397473812150, guid: 407766effab1b244685209b8565a9278, type: 3}
    - {fileID: 1976909022411099745, guid: 407766effab1b244685209b8565a9278, type: 3}
    - {fileID: -6795492858611725480, guid: 407766effab1b244685209b8565a9278, type: 3}
    - {fileID: -5355997050192655222, guid: 407766effab1b244685209b8565a9278, type: 3}
    - {fileID: 6495515714393704180, guid: 407766effab1b244685209b8565a9278, type: 3}
    - {fileID: 3300537580549072873, guid: 407766effab1b244685209b8565a9278, type: 3}
    - {fileID: 5492801668109144475, guid: 407766effab1b244685209b8565a9278, type: 3}
    - {fileID: -8088803396171273560, guid: 407766effab1b244685209b8565a9278, type: 3}
  m_AnimationClipSettings:
    serializedVersion: 2
    m_AdditiveReferencePoseClip: {fileID: 0}
    m_AdditiveReferencePoseTime: 0
    m_StartTime: 0
    m_StopTime: 1.4333333
    m_OrientationOffsetY: 0
    m_Level: 0
    m_CycleOffset: 0
    m_HasAdditiveReferencePose: 0
    m_LoopTime: 1
    m_LoopBlend: 0
    m_LoopBlendOrientation: 0
    m_LoopBlendPositionY: 0
    m_LoopBlendPositionXZ: 0
    m_KeepOriginalOrientation: 0
    m_KeepOriginalPositionY: 1
    m_KeepOriginalPositionXZ: 0
    m_HeightFromFeet: 0
    m_Mirror: 0
  m_EditorCurves: []
  m_EulerEditorCurves: []
  m_HasGenericRootTransform: 0
  m_HasMotionFloatCurves: 0
  m_Events: []
