%YAML 1.1
%TAG !u! tag:unity3d.com,2011:
--- !u!74 &7400000
AnimationClip:
  m_ObjectHideFlags: 0
  m_CorrespondingSourceObject: {fileID: 0}
  m_PrefabInstance: {fileID: 0}
  m_PrefabAsset: {fileID: 0}
  m_Name: BigOne_Attack_Right
  serializedVersion: 6
  m_Legacy: 0
  m_Compressed: 0
  m_UseHighQualityCurve: 1
  m_RotationCurves: []
  m_CompressedRotationCurves: []
  m_EulerCurves: []
  m_PositionCurves: []
  m_ScaleCurves: []
  m_FloatCurves:
  - curve:
      serializedVersion: 2
      m_Curve:
      - serializedVersion: 3
        time: 0
        value: 1
        inSlope: Infinity
        outSlope: Infinity
        tangentMode: 103
        weightedMode: 0
        inWeight: 0
        outWeight: 0
      m_PreInfinity: 2
      m_PostInfinity: 2
      m_RotationOrder: 4
    attribute: m_FlipX
    path: 
    classID: 212
    script: {fileID: 0}
  m_PPtrCurves:
  - curve:
    - time: 0
      value: {fileID: -3247472756072380834, guid: 2d715fd1767523b47b9d3cff5f4f994f, type: 3}
    - time: 0.13333334
      value: {fileID: 9166818971694205060, guid: 2d715fd1767523b47b9d3cff5f4f994f, type: 3}
    - time: 0.28333333
      value: {fileID: -8511097099197304243, guid: 2d715fd1767523b47b9d3cff5f4f994f, type: 3}
    - time: 0.41666666
      value: {fileID: -5061499269170277237, guid: 2d715fd1767523b47b9d3cff5f4f994f, type: 3}
    - time: 0.5833333
      value: {fileID: -2134232259180179401, guid: 2d715fd1767523b47b9d3cff5f4f994f, type: 3}
    - time: 0.81666666
      value: {fileID: -6162980141125144875, guid: 2d715fd1767523b47b9d3cff5f4f994f, type: 3}
    - time: 1.0833334
      value: {fileID: 5664456991668877182, guid: 2d715fd1767523b47b9d3cff5f4f994f, type: 3}
    attribute: m_Sprite
    path: 
    classID: 212
    script: {fileID: 0}
  m_SampleRate: 60
  m_WrapMode: 0
  m_Bounds:
    m_Center: {x: 0, y: 0, z: 0}
    m_Extent: {x: 0, y: 0, z: 0}
  m_ClipBindingConstant:
    genericBindings:
    - serializedVersion: 2
      path: 0
      attribute: 555744692
      script: {fileID: 0}
      typeID: 212
      customType: 0
      isPPtrCurve: 0
    - serializedVersion: 2
      path: 0
      attribute: 0
      script: {fileID: 0}
      typeID: 212
      customType: 23
      isPPtrCurve: 1
    pptrCurveMapping:
    - {fileID: -3247472756072380834, guid: 2d715fd1767523b47b9d3cff5f4f994f, type: 3}
    - {fileID: 9166818971694205060, guid: 2d715fd1767523b47b9d3cff5f4f994f, type: 3}
    - {fileID: -8511097099197304243, guid: 2d715fd1767523b47b9d3cff5f4f994f, type: 3}
    - {fileID: -5061499269170277237, guid: 2d715fd1767523b47b9d3cff5f4f994f, type: 3}
    - {fileID: -2134232259180179401, guid: 2d715fd1767523b47b9d3cff5f4f994f, type: 3}
    - {fileID: -6162980141125144875, guid: 2d715fd1767523b47b9d3cff5f4f994f, type: 3}
    - {fileID: 5664456991668877182, guid: 2d715fd1767523b47b9d3cff5f4f994f, type: 3}
  m_AnimationClipSettings:
    serializedVersion: 2
    m_AdditiveReferencePoseClip: {fileID: 0}
    m_AdditiveReferencePoseTime: 0
    m_StartTime: 0
    m_StopTime: 1.1
    m_OrientationOffsetY: 0
    m_Level: 0
    m_CycleOffset: 0
    m_HasAdditiveReferencePose: 0
    m_LoopTime: 1
    m_LoopBlend: 0
    m_LoopBlendOrientation: 0
    m_LoopBlendPositionY: 0
    m_LoopBlendPositionXZ: 0
    m_KeepOriginalOrientation: 0
    m_KeepOriginalPositionY: 1
    m_KeepOriginalPositionXZ: 0
    m_HeightFromFeet: 0
    m_Mirror: 0
  m_EditorCurves:
  - curve:
      serializedVersion: 2
      m_Curve:
      - serializedVersion: 3
        time: 0
        value: 1
        inSlope: Infinity
        outSlope: Infinity
        tangentMode: 103
        weightedMode: 0
        inWeight: 0
        outWeight: 0
      m_PreInfinity: 2
      m_PostInfinity: 2
      m_RotationOrder: 4
    attribute: m_FlipX
    path: 
    classID: 212
    script: {fileID: 0}
  m_EulerEditorCurves: []
  m_HasGenericRootTransform: 0
  m_HasMotionFloatCurves: 0
  m_Events: []
