%YAML 1.1
%TAG !u! tag:unity3d.com,2011:
--- !u!74 &7400000
AnimationClip:
  m_ObjectHideFlags: 0
  m_CorrespondingSourceObject: {fileID: 0}
  m_PrefabInstance: {fileID: 0}
  m_PrefabAsset: {fileID: 0}
  m_Name: BigOne_Attack_Up
  serializedVersion: 6
  m_Legacy: 0
  m_Compressed: 0
  m_UseHighQualityCurve: 1
  m_RotationCurves: []
  m_CompressedRotationCurves: []
  m_EulerCurves: []
  m_PositionCurves: []
  m_ScaleCurves: []
  m_FloatCurves: []
  m_PPtrCurves:
  - curve:
    - time: 0
      value: {fileID: -5892170877298128846, guid: 2d715fd1767523b47b9d3cff5f4f994f, type: 3}
    - time: 0.18333334
      value: {fileID: -4985026845447711071, guid: 2d715fd1767523b47b9d3cff5f4f994f, type: 3}
    - time: 0.36666667
      value: {fileID: -8400458947311887654, guid: 2d715fd1767523b47b9d3cff5f4f994f, type: 3}
    - time: 0.55
      value: {fileID: 6436853313494195887, guid: 2d715fd1767523b47b9d3cff5f4f994f, type: 3}
    - time: 0.73333335
      value: {fileID: -3332162396588992402, guid: 2d715fd1767523b47b9d3cff5f4f994f, type: 3}
    - time: 0.9166667
      value: {fileID: -4015853326363392394, guid: 2d715fd1767523b47b9d3cff5f4f994f, type: 3}
    - time: 1
      value: {fileID: -5892170877298128846, guid: 2d715fd1767523b47b9d3cff5f4f994f, type: 3}
    attribute: m_Sprite
    path: 
    classID: 212
    script: {fileID: 0}
  m_SampleRate: 60
  m_WrapMode: 0
  m_Bounds:
    m_Center: {x: 0, y: 0, z: 0}
    m_Extent: {x: 0, y: 0, z: 0}
  m_ClipBindingConstant:
    genericBindings:
    - serializedVersion: 2
      path: 0
      attribute: 0
      script: {fileID: 0}
      typeID: 212
      customType: 23
      isPPtrCurve: 1
    pptrCurveMapping:
    - {fileID: -5892170877298128846, guid: 2d715fd1767523b47b9d3cff5f4f994f, type: 3}
    - {fileID: -4985026845447711071, guid: 2d715fd1767523b47b9d3cff5f4f994f, type: 3}
    - {fileID: -8400458947311887654, guid: 2d715fd1767523b47b9d3cff5f4f994f, type: 3}
    - {fileID: 6436853313494195887, guid: 2d715fd1767523b47b9d3cff5f4f994f, type: 3}
    - {fileID: -3332162396588992402, guid: 2d715fd1767523b47b9d3cff5f4f994f, type: 3}
    - {fileID: -4015853326363392394, guid: 2d715fd1767523b47b9d3cff5f4f994f, type: 3}
    - {fileID: -5892170877298128846, guid: 2d715fd1767523b47b9d3cff5f4f994f, type: 3}
  m_AnimationClipSettings:
    serializedVersion: 2
    m_AdditiveReferencePoseClip: {fileID: 0}
    m_AdditiveReferencePoseTime: 0
    m_StartTime: 0
    m_StopTime: 1.0166667
    m_OrientationOffsetY: 0
    m_Level: 0
    m_CycleOffset: 0
    m_HasAdditiveReferencePose: 0
    m_LoopTime: 1
    m_LoopBlend: 0
    m_LoopBlendOrientation: 0
    m_LoopBlendPositionY: 0
    m_LoopBlendPositionXZ: 0
    m_KeepOriginalOrientation: 0
    m_KeepOriginalPositionY: 1
    m_KeepOriginalPositionXZ: 0
    m_HeightFromFeet: 0
    m_Mirror: 0
  m_EditorCurves: []
  m_EulerEditorCurves: []
  m_HasGenericRootTransform: 0
  m_HasMotionFloatCurves: 0
  m_Events: []
