%YAML 1.1
%TAG !u! tag:unity3d.com,2011:
--- !u!1001 &2379474853684296451
PrefabInstance:
  m_ObjectHideFlags: 0
  serializedVersion: 2
  m_Modification:
    m_TransformParent: {fileID: 0}
    m_Modifications:
    - target: {fileID: 4073314101105527696, guid: 4ee2d586f0a356f4f8b322491dfe13c7, type: 3}
      propertyPath: _item
      value: 
      objectReference: {fileID: 11400000, guid: fc534a31145bc194895f4a35663a040e, type: 2}
    - target: {fileID: 4073314101105527698, guid: 4ee2d586f0a356f4f8b322491dfe13c7, type: 3}
      propertyPath: m_Sprite
      value: 
      objectReference: {fileID: 21300000, guid: b51ce623586fa2a40b8af0ddec3a4bba, type: 3}
    - target: {fileID: 4073314101105527724, guid: 4ee2d586f0a356f4f8b322491dfe13c7, type: 3}
      propertyPath: m_Name
      value: PFB_ITEM_FlashMob
      objectReference: {fileID: 0}
    - target: {fileID: 4073314101105527725, guid: 4ee2d586f0a356f4f8b322491dfe13c7, type: 3}
      propertyPath: m_RootOrder
      value: 0
      objectReference: {fileID: 0}
    - target: {fileID: 4073314101105527725, guid: 4ee2d586f0a356f4f8b322491dfe13c7, type: 3}
      propertyPath: m_LocalPosition.x
      value: -2.0262697
      objectReference: {fileID: 0}
    - target: {fileID: 4073314101105527725, guid: 4ee2d586f0a356f4f8b322491dfe13c7, type: 3}
      propertyPath: m_LocalPosition.y
      value: 0.38155133
      objectReference: {fileID: 0}
    - target: {fileID: 4073314101105527725, guid: 4ee2d586f0a356f4f8b322491dfe13c7, type: 3}
      propertyPath: m_LocalPosition.z
      value: -0.4213773
      objectReference: {fileID: 0}
    - target: {fileID: 4073314101105527725, guid: 4ee2d586f0a356f4f8b322491dfe13c7, type: 3}
      propertyPath: m_LocalRotation.w
      value: 1
      objectReference: {fileID: 0}
    - target: {fileID: 4073314101105527725, guid: 4ee2d586f0a356f4f8b322491dfe13c7, type: 3}
      propertyPath: m_LocalRotation.x
      value: 0
      objectReference: {fileID: 0}
    - target: {fileID: 4073314101105527725, guid: 4ee2d586f0a356f4f8b322491dfe13c7, type: 3}
      propertyPath: m_LocalRotation.y
      value: 0
      objectReference: {fileID: 0}
    - target: {fileID: 4073314101105527725, guid: 4ee2d586f0a356f4f8b322491dfe13c7, type: 3}
      propertyPath: m_LocalRotation.z
      value: 0
      objectReference: {fileID: 0}
    - target: {fileID: 4073314101105527725, guid: 4ee2d586f0a356f4f8b322491dfe13c7, type: 3}
      propertyPath: m_LocalEulerAnglesHint.x
      value: 0
      objectReference: {fileID: 0}
    - target: {fileID: 4073314101105527725, guid: 4ee2d586f0a356f4f8b322491dfe13c7, type: 3}
      propertyPath: m_LocalEulerAnglesHint.y
      value: 0
      objectReference: {fileID: 0}
    - target: {fileID: 4073314101105527725, guid: 4ee2d586f0a356f4f8b322491dfe13c7, type: 3}
      propertyPath: m_LocalEulerAnglesHint.z
      value: 0
      objectReference: {fileID: 0}
    m_RemovedComponents: []
  m_SourcePrefab: {fileID: 100100000, guid: 4ee2d586f0a356f4f8b322491dfe13c7, type: 3}
