%YAML 1.1
%TAG !u! tag:unity3d.com,2011:
--- !u!74 &7400000
AnimationClip:
  m_ObjectHideFlags: 0
  m_CorrespondingSourceObject: {fileID: 0}
  m_PrefabInstance: {fileID: 0}
  m_PrefabAsset: {fileID: 0}
  m_Name: Quicktouch_Death
  serializedVersion: 6
  m_Legacy: 0
  m_Compressed: 0
  m_UseHighQualityCurve: 1
  m_RotationCurves: []
  m_CompressedRotationCurves: []
  m_EulerCurves: []
  m_PositionCurves: []
  m_ScaleCurves: []
  m_FloatCurves:
  - curve:
      serializedVersion: 2
      m_Curve:
      - serializedVersion: 3
        time: 0
        value: 1
        inSlope: Infinity
        outSlope: Infinity
        tangentMode: 103
        weightedMode: 0
        inWeight: 0
        outWeight: 0
      - serializedVersion: 3
        time: 1.0833334
        value: 0
        inSlope: Infinity
        outSlope: Infinity
        tangentMode: 103
        weightedMode: 0
        inWeight: 0
        outWeight: 0
      m_PreInfinity: 2
      m_PostInfinity: 2
      m_RotationOrder: 4
    attribute: isDying
    path: 
    classID: 114
    script: {fileID: 11500000, guid: 0d0dab824fdbc31439c1132c9a12ba6d, type: 3}
  m_PPtrCurves:
  - curve:
    - time: 0
      value: {fileID: 1010904083953097504, guid: 3293c24cfd9eb42448c74c2e68de9e2b, type: 3}
    - time: 0.083333336
      value: {fileID: -5599058651082041584, guid: 3293c24cfd9eb42448c74c2e68de9e2b, type: 3}
    - time: 0.16666667
      value: {fileID: -9044194819509468164, guid: 3293c24cfd9eb42448c74c2e68de9e2b, type: 3}
    - time: 0.25
      value: {fileID: 5228955189198475076, guid: 3293c24cfd9eb42448c74c2e68de9e2b, type: 3}
    - time: 0.31666666
      value: {fileID: -274028917457474349, guid: 3293c24cfd9eb42448c74c2e68de9e2b, type: 3}
    - time: 0.4
      value: {fileID: 980140614578088314, guid: 3293c24cfd9eb42448c74c2e68de9e2b, type: 3}
    - time: 0.46666667
      value: {fileID: 6221087558435620079, guid: 3293c24cfd9eb42448c74c2e68de9e2b, type: 3}
    - time: 0.55
      value: {fileID: 2356561099218704478, guid: 3293c24cfd9eb42448c74c2e68de9e2b, type: 3}
    - time: 0.6166667
      value: {fileID: -3313032082605939232, guid: 3293c24cfd9eb42448c74c2e68de9e2b, type: 3}
    - time: 0.68333334
      value: {fileID: -1363577627028202319, guid: 3293c24cfd9eb42448c74c2e68de9e2b, type: 3}
    - time: 0.76666665
      value: {fileID: -1422430346636475858, guid: 3293c24cfd9eb42448c74c2e68de9e2b, type: 3}
    - time: 0.85
      value: {fileID: 3605184932711222208, guid: 3293c24cfd9eb42448c74c2e68de9e2b, type: 3}
    - time: 0.93333334
      value: {fileID: -6645356146373787584, guid: 3293c24cfd9eb42448c74c2e68de9e2b, type: 3}
    - time: 0.98333335
      value: {fileID: -6645356146373787584, guid: 3293c24cfd9eb42448c74c2e68de9e2b, type: 3}
    attribute: m_Sprite
    path: 
    classID: 212
    script: {fileID: 0}
  m_SampleRate: 60
  m_WrapMode: 0
  m_Bounds:
    m_Center: {x: 0, y: 0, z: 0}
    m_Extent: {x: 0, y: 0, z: 0}
  m_ClipBindingConstant:
    genericBindings:
    - serializedVersion: 2
      path: 0
      attribute: 3659463365
      script: {fileID: 11500000, guid: 0d0dab824fdbc31439c1132c9a12ba6d, type: 3}
      typeID: 114
      customType: 0
      isPPtrCurve: 0
    - serializedVersion: 2
      path: 0
      attribute: 0
      script: {fileID: 0}
      typeID: 212
      customType: 23
      isPPtrCurve: 1
    pptrCurveMapping:
    - {fileID: 1010904083953097504, guid: 3293c24cfd9eb42448c74c2e68de9e2b, type: 3}
    - {fileID: -5599058651082041584, guid: 3293c24cfd9eb42448c74c2e68de9e2b, type: 3}
    - {fileID: -9044194819509468164, guid: 3293c24cfd9eb42448c74c2e68de9e2b, type: 3}
    - {fileID: 5228955189198475076, guid: 3293c24cfd9eb42448c74c2e68de9e2b, type: 3}
    - {fileID: -274028917457474349, guid: 3293c24cfd9eb42448c74c2e68de9e2b, type: 3}
    - {fileID: 980140614578088314, guid: 3293c24cfd9eb42448c74c2e68de9e2b, type: 3}
    - {fileID: 6221087558435620079, guid: 3293c24cfd9eb42448c74c2e68de9e2b, type: 3}
    - {fileID: 2356561099218704478, guid: 3293c24cfd9eb42448c74c2e68de9e2b, type: 3}
    - {fileID: -3313032082605939232, guid: 3293c24cfd9eb42448c74c2e68de9e2b, type: 3}
    - {fileID: -1363577627028202319, guid: 3293c24cfd9eb42448c74c2e68de9e2b, type: 3}
    - {fileID: -1422430346636475858, guid: 3293c24cfd9eb42448c74c2e68de9e2b, type: 3}
    - {fileID: 3605184932711222208, guid: 3293c24cfd9eb42448c74c2e68de9e2b, type: 3}
    - {fileID: -6645356146373787584, guid: 3293c24cfd9eb42448c74c2e68de9e2b, type: 3}
    - {fileID: -6645356146373787584, guid: 3293c24cfd9eb42448c74c2e68de9e2b, type: 3}
  m_AnimationClipSettings:
    serializedVersion: 2
    m_AdditiveReferencePoseClip: {fileID: 0}
    m_AdditiveReferencePoseTime: 0
    m_StartTime: 0
    m_StopTime: 1.0833334
    m_OrientationOffsetY: 0
    m_Level: 0
    m_CycleOffset: 0
    m_HasAdditiveReferencePose: 0
    m_LoopTime: 0
    m_LoopBlend: 0
    m_LoopBlendOrientation: 0
    m_LoopBlendPositionY: 0
    m_LoopBlendPositionXZ: 0
    m_KeepOriginalOrientation: 0
    m_KeepOriginalPositionY: 1
    m_KeepOriginalPositionXZ: 0
    m_HeightFromFeet: 0
    m_Mirror: 0
  m_EditorCurves:
  - curve:
      serializedVersion: 2
      m_Curve:
      - serializedVersion: 3
        time: 0
        value: 1
        inSlope: Infinity
        outSlope: Infinity
        tangentMode: 103
        weightedMode: 0
        inWeight: 0
        outWeight: 0
      - serializedVersion: 3
        time: 1.0833334
        value: 0
        inSlope: Infinity
        outSlope: Infinity
        tangentMode: 103
        weightedMode: 0
        inWeight: 0
        outWeight: 0
      m_PreInfinity: 2
      m_PostInfinity: 2
      m_RotationOrder: 4
    attribute: isDying
    path: 
    classID: 114
    script: {fileID: 11500000, guid: 0d0dab824fdbc31439c1132c9a12ba6d, type: 3}
  m_EulerEditorCurves: []
  m_HasGenericRootTransform: 0
  m_HasMotionFloatCurves: 0
  m_Events: []
